<svg width="36" height="36" xmlns="http://www.w3.org/2000/svg">
 <g id="Layer_1">
  <title>Layer 1</title>
  <ellipse ry="18" rx="18" id="svg_1" cy="18" cx="18" stroke="#f08c00" fill="#f08c00"/>
  <g id="svg_2">
   <path fill="#2d2d2d" d="m13.84536,24.24599a2,2 0 1 0 2,2a2.006,2.006 0 0 0 -2,-2zm-5.846,-15.692l0,2l2,0l3.6,7.292l-1.505,2.45a1.991,1.991 0 0 0 1.905,2.95l11.692,0l0,-1.923l-11.447,0a0.236,0.236 0 0 1 -0.25,-0.25a1.247,1.247 0 0 1 0.106,-0.25l1,-1.577l7.45,0a1.962,1.962 0 0 0 1.75,-1.05l3.6,-6.192a1.169,1.169 0 0 0 0.1,-0.5a0.961,0.961 0 0 0 -1,-0.95l-14.801,0l-0.95,-2l-3.25,0zm15.692,15.692a2,2 0 1 0 2,2a2.006,2.006 0 0 0 -2,-2z" class="a" id="svg_3"/>
  </g>
 </g>

</svg>